<svg width="25" height="28" viewBox="0 0 25 28" fill="none" xmlns="http://www.w3.org/2000/svg">
<path fill-rule="evenodd" clip-rule="evenodd" d="M1.46428 18.3035C2.27297 18.3035 2.92855 18.959 2.92855 19.7677V23.4284C2.92855 23.6873 3.0314 23.9356 3.21447 24.1187C3.39754 24.3018 3.64584 24.4046 3.90474 24.4046H20.988C21.2469 24.4046 21.4952 24.3018 21.6782 24.1187C21.8613 23.9356 21.9642 23.6873 21.9642 23.4284V19.7677C21.9642 18.959 22.6197 18.3035 23.4284 18.3035C24.2371 18.3035 24.8927 18.959 24.8927 19.7677V23.4284C24.8927 24.464 24.4813 25.4572 23.749 26.1895C23.0168 26.9218 22.0236 27.3332 20.988 27.3332H3.90474C2.86914 27.3332 1.87595 26.9218 1.14367 26.1895C0.411391 25.4572 0 24.464 0 23.4284V19.7677C0 18.959 0.655579 18.3035 1.46428 18.3035Z" fill="black"/>
<path fill-rule="evenodd" clip-rule="evenodd" d="M6.52995 12.631C7.10179 12.0592 8.02892 12.0592 8.60075 12.631L12.4463 16.4765L16.2918 12.631C16.8636 12.0592 17.7908 12.0592 18.3626 12.631C18.9344 13.2029 18.9344 14.13 18.3626 14.7018L13.4817 19.5827C12.9098 20.1546 11.9827 20.1546 11.4109 19.5827L6.52995 14.7018C5.95812 14.13 5.95812 13.2029 6.52995 12.631Z" fill="black"/>
<path fill-rule="evenodd" clip-rule="evenodd" d="M12.4462 0C13.2549 0 13.9105 0.655579 13.9105 1.46428V18.5475C13.9105 19.3562 13.2549 20.0118 12.4462 20.0118C11.6375 20.0118 10.9819 19.3562 10.9819 18.5475V1.46428C10.9819 0.655579 11.6375 0 12.4462 0Z" fill="black"/>
</svg>
