<svg width="25" height="26" viewBox="0 0 25 26" fill="none" xmlns="http://www.w3.org/2000/svg">
<path d="M16.4732 15.1898C16.4732 16.8881 15.0972 18.2635 13.4 18.2635H11.3095C9.6123 18.2635 8.23632 16.8881 8.23632 15.1898H0V23.9409C0 25.0781 0.921953 26 2.05908 26H22.6499C23.787 26 24.709 25.0781 24.709 23.9409V15.1898H16.4732Z" fill="#212121"/>
<path d="M12.3113 13.6414L16.2277 9.80534C16.6122 9.42801 16.4882 9.12224 15.9482 9.12224H13.5983V1.28693C13.5983 0.576028 13.0222 0 12.3113 0C11.6004 0 11.0244 0.576028 11.0244 1.28693V9.12224H8.67449C8.13399 9.12224 8.00993 9.42853 8.39549 9.80534L12.3113 13.6414Z" fill="#212121"/>
</svg>
